<?xml version="1.0" encoding="UTF-8"?>
<svg version="1.1"
	viewBox="0 0 16 16"
	fill="currentColor"
	xmlns="http://www.w3.org/2000/svg"
	xmlns:rdf="http://www.w3.org/1999/02/22-rdf-syntax-ns#"
	xmlns:cc="http://creativecommons.org/ns#"
	xmlns:dc="http://purl.org/dc/elements/1.1/"
>
	<metadata>
		<rdf:RDF>
			<cc:Work>
				<cc:license rdf:resource="http://creativecommons.org/publicdomain/zero/1.0/" />
				<dc:creator>Matt Pharoah</dc:creator>
			</cc:Work>
		</rdf:RDF>
	</metadata>
	<path d="m7.03125 5.4824219c-2.6363883 0.1054613-5.1249359 0.6336628-7.03125 1.5019531v9.015625h2v-8h1v8h10v-8h1v8h2v-8.8164062-0.0019532-0.2011718c-1.808527-0.8220251-4.139856-1.3361683-6.6230469-1.4765626l-1.2128906 3.4960938h2.7050785l-4.5781254 5.410156 1.1875-3.410156h-2.3476562l1.8847656-5.46875 0.015625-0.0488281z"/>
</svg>
